vivado/vivado.sim/sim_2/behav/xsim/test_000.vcd
$date
   Thu Jan  1 21:16:22 2026
$end
$version
  2022.1
$end
$timescale
  1ps
$end
$scope module testfixture $end
$var reg 1 ! clk $end
$var reg 1 " rst_n $end
$var reg 1 # f_num $end
$var wire 1 $ ren $end
$var wire 1 % wen $end
$var wire 8 & raddr [7:0] $end
$var wire 8 ' waddr [7:0] $end
$var reg 256 ( din [255:0] $end
$var reg 256 ) dout [255:0] $end
$var integer 32 * i [31:0] $end
$var reg 1 + en $end
$var wire 1 , dx_diff_rst_n $end
$var wire 8 - addr [7:0] $end
$scope module uut1 $end
$var wire 1 . clk $end
$var wire 1 / rst_n $end
$var wire 7 0 f_num [6:0] $end
$var wire 256 1 din [255:0] $end
$var wire 1 $ ren $end
$var wire 1 % wen $end
$var wire 8 & raddr [7:0] $end
$var wire 8 ' waddr [7:0] $end
$var wire 256 2 dout [255:0] $end
$var wire 1 3 dx_diff_rst_n $end
$var wire 1 4 out_valid $end
$scope module dx_c1 $end
$var wire 1 . clk $end
$var wire 1 / rst_n $end
$var wire 1 5 en $end
$var reg 1 6 dx_diff_rst_n $end
$var wire 8 & addr [7:0] $end
$var reg 8 7 dx_diff_addr_row [7:0] $end
$var reg 8 8 dx_diff_addr_col [7:0] $end
$upscope $end
$scope module dx1 $end
$var wire 1 . clk $end
$var wire 1 / rst_n $end
$var wire 1 3 dx_diff_rst_n $end
$var wire 256 1 in [255:0] $end
$var reg 256 9 out [255:0] $end
$var wire 1 4 all_out_valid $end
$var reg 16 : prev [15:0] $end
$var wire 16 ; out_valid [15:0] $end
$var wire 16 < prev_in [15:0] $end
$var wire 16 = prev_in_test [15:0] $end
$var integer 32 > i [31:0] $end
$scope module genblk1[0].u_subtract $end
$var wire 1 . aclk $end
$var wire 1 / aresetn $end
$var wire 1 ? s_axis_a_tvalid $end
$var wire 16 @ s_axis_a_tdata [15:0] $end
$var wire 1 A s_axis_b_tvalid $end
$var wire 16 B s_axis_b_tdata [15:0] $end
$var wire 1 C m_axis_result_tvalid $end
$var wire 16 D m_axis_result_tdata [255:240] $end
$var wire 3 E m_axis_result_tuser [2:0] $end
$upscope $end
$scope module genblk1[1].u_subtract $end
$var wire 1 . aclk $end
$var wire 1 / aresetn $end
$var wire 1 F s_axis_a_tvalid $end
$var wire 16 G s_axis_a_tdata [15:0] $end
$var wire 1 H s_axis_b_tvalid $end
$var wire 16 I s_axis_b_tdata [15:0] $end
$var wire 1 J m_axis_result_tvalid $end
$var wire 16 K m_axis_result_tdata [239:224] $end
$var wire 3 L m_axis_result_tuser [2:0] $end
$upscope $end
$scope module genblk1[2].u_subtract $end
$var wire 1 . aclk $end
$var wire 1 / aresetn $end
$var wire 1 M s_axis_a_tvalid $end
$var wire 16 N s_axis_a_tdata [15:0] $end
$var wire 1 O s_axis_b_tvalid $end
$var wire 16 P s_axis_b_tdata [15:0] $end
$var wire 1 Q m_axis_result_tvalid $end
$var wire 16 R m_axis_result_tdata [223:208] $end
$var wire 3 S m_axis_result_tuser [2:0] $end
$upscope $end
$scope module genblk1[3].u_subtract $end
$var wire 1 . aclk $end
$var wire 1 / aresetn $end
$var wire 1 T s_axis_a_tvalid $end
$var wire 16 U s_axis_a_tdata [15:0] $end
$var wire 1 V s_axis_b_tvalid $end
$var wire 16 W s_axis_b_tdata [15:0] $end
$var wire 1 X m_axis_result_tvalid $end
$var wire 16 Y m_axis_result_tdata [207:192] $end
$var wire 3 Z m_axis_result_tuser [2:0] $end
$upscope $end
$scope module genblk1[4].u_subtract $end
$var wire 1 . aclk $end
$var wire 1 / aresetn $end
$var wire 1 [ s_axis_a_tvalid $end
$var wire 16 \ s_axis_a_tdata [15:0] $end
$var wire 1 ] s_axis_b_tvalid $end
$var wire 16 ^ s_axis_b_tdata [15:0] $end
$var wire 1 _ m_axis_result_tvalid $end
$var wire 16 ` m_axis_result_tdata [191:176] $end
$var wire 3 a m_axis_result_tuser [2:0] $end
$upscope $end
$scope module genblk1[5].u_subtract $end
$var wire 1 . aclk $end
$var wire 1 / aresetn $end
$var wire 1 b s_axis_a_tvalid $end
$var wire 16 c s_axis_a_tdata [15:0] $end
$var wire 1 d s_axis_b_tvalid $end
$var wire 16 e s_axis_b_tdata [15:0] $end
$var wire 1 f m_axis_result_tvalid $end
$var wire 16 g m_axis_result_tdata [175:160] $end
$var wire 3 h m_axis_result_tuser [2:0] $end
$upscope $end
$scope module genblk1[6].u_subtract $end
$var wire 1 . aclk $end
$var wire 1 / aresetn $end
$var wire 1 i s_axis_a_tvalid $end
$var wire 16 j s_axis_a_tdata [15:0] $end
$var wire 1 k s_axis_b_tvalid $end
$var wire 16 l s_axis_b_tdata [15:0] $end
$var wire 1 m m_axis_result_tvalid $end
$var wire 16 n m_axis_result_tdata [159:144] $end
$var wire 3 o m_axis_result_tuser [2:0] $end
$upscope $end
$scope module genblk1[7].u_subtract $end
$var wire 1 . aclk $end
$var wire 1 / aresetn $end
$var wire 1 p s_axis_a_tvalid $end
$var wire 16 q s_axis_a_tdata [15:0] $end
$var wire 1 r s_axis_b_tvalid $end
$var wire 16 s s_axis_b_tdata [15:0] $end
$var wire 1 t m_axis_result_tvalid $end
$var wire 16 u m_axis_result_tdata [143:128] $end
$var wire 3 v m_axis_result_tuser [2:0] $end
$upscope $end
$scope module genblk1[8].u_subtract $end
$var wire 1 . aclk $end
$var wire 1 / aresetn $end
$var wire 1 w s_axis_a_tvalid $end
$var wire 16 x s_axis_a_tdata [15:0] $end
$var wire 1 y s_axis_b_tvalid $end
$var wire 16 z s_axis_b_tdata [15:0] $end
$var wire 1 { m_axis_result_tvalid $end
$var wire 16 | m_axis_result_tdata [127:112] $end
$var wire 3 } m_axis_result_tuser [2:0] $end
$upscope $end
$scope module genblk1[9].u_subtract $end
$var wire 1 . aclk $end
$var wire 1 / aresetn $end
$var wire 1 ~ s_axis_a_tvalid $end
$var wire 16 !! s_axis_a_tdata [15:0] $end
$var wire 1 "! s_axis_b_tvalid $end
$var wire 16 #! s_axis_b_tdata [15:0] $end
$var wire 1 $! m_axis_result_tvalid $end
$var wire 16 %! m_axis_result_tdata [111:96] $end
$var wire 3 &! m_axis_result_tuser [2:0] $end
$upscope $end
$scope module genblk1[10].u_subtract $end
$var wire 1 . aclk $end
$var wire 1 / aresetn $end
$var wire 1 '! s_axis_a_tvalid $end
$var wire 16 (! s_axis_a_tdata [15:0] $end
$var wire 1 )! s_axis_b_tvalid $end
$var wire 16 *! s_axis_b_tdata [15:0] $end
$var wire 1 +! m_axis_result_tvalid $end
$var wire 16 ,! m_axis_result_tdata [95:80] $end
$var wire 3 -! m_axis_result_tuser [2:0] $end
$upscope $end
$scope module genblk1[11].u_subtract $end
$var wire 1 . aclk $end
$var wire 1 / aresetn $end
$var wire 1 .! s_axis_a_tvalid $end
$var wire 16 /! s_axis_a_tdata [15:0] $end
$var wire 1 0! s_axis_b_tvalid $end
$var wire 16 1! s_axis_b_tdata [15:0] $end
$var wire 1 2! m_axis_result_tvalid $end
$var wire 16 3! m_axis_result_tdata [79:64] $end
$var wire 3 4! m_axis_result_tuser [2:0] $end
$upscope $end
$scope module genblk1[12].u_subtract $end
$var wire 1 . aclk $end
$var wire 1 / aresetn $end
$var wire 1 5! s_axis_a_tvalid $end
$var wire 16 6! s_axis_a_tdata [15:0] $end
$var wire 1 7! s_axis_b_tvalid $end
$var wire 16 8! s_axis_b_tdata [15:0] $end
$var wire 1 9! m_axis_result_tvalid $end
$var wire 16 :! m_axis_result_tdata [63:48] $end
$var wire 3 ;! m_axis_result_tuser [2:0] $end
$upscope $end
$scope module genblk1[13].u_subtract $end
$var wire 1 . aclk $end
$var wire 1 / aresetn $end
$var wire 1 <! s_axis_a_tvalid $end
$var wire 16 =! s_axis_a_tdata [15:0] $end
$var wire 1 >! s_axis_b_tvalid $end
$var wire 16 ?! s_axis_b_tdata [15:0] $end
$var wire 1 @! m_axis_result_tvalid $end
$var wire 16 A! m_axis_result_tdata [47:32] $end
$var wire 3 B! m_axis_result_tuser [2:0] $end
$upscope $end
$scope module genblk1[14].u_subtract $end
$var wire 1 . aclk $end
$var wire 1 / aresetn $end
$var wire 1 C! s_axis_a_tvalid $end
$var wire 16 D! s_axis_a_tdata [15:0] $end
$var wire 1 E! s_axis_b_tvalid $end
$var wire 16 F! s_axis_b_tdata [15:0] $end
$var wire 1 G! m_axis_result_tvalid $end
$var wire 16 H! m_axis_result_tdata [31:16] $end
$var wire 3 I! m_axis_result_tuser [2:0] $end
$upscope $end
$scope module u_subtract_last $end
$var wire 1 . aclk $end
$var wire 1 / aresetn $end
$var wire 1 J! s_axis_a_tvalid $end
$var wire 16 < s_axis_a_tdata [15:0] $end
$var wire 1 K! s_axis_b_tvalid $end
$var wire 16 L! s_axis_b_tdata [15:0] $end
$var wire 1 M! m_axis_result_tvalid $end
$var wire 16 N! m_axis_result_tdata [15:0] $end
$var wire 3 O! m_axis_result_tuser [2:0] $end
$upscope $end
$upscope $end
$scope module dx_c2 $end
$var wire 1 . clk $end
$var wire 1 / rst_n $end
$var wire 1 4 en $end
$var reg 1 P! dx_diff_rst_n $end
$var wire 8 ' addr [7:0] $end
$var reg 8 Q! dx_diff_addr_row [7:0] $end
$var reg 8 R! dx_diff_addr_col [7:0] $end
$upscope $end
$upscope $end
$scope module uut2 $end
$var wire 1 S! clk $end
$var wire 1 T! rst_n $end
$var wire 1 U! en $end
$var reg 1 V! dx_diff_rst_n $end
$var wire 8 - addr [7:0] $end
$var reg 8 W! dx_diff_addr_row [7:0] $end
$var reg 8 X! dx_diff_addr_col [7:0] $end
$upscope $end
$scope begin Block86_27 $end
$var reg 32 Y! wmemtrnsf_fd [31:0] $end
$scope begin Block86_28 $end
$var reg 32 Z! i1 [31:0] $end
$upscope $end
$upscope $end
$upscope $end
$enddefinitions $end
#0
$dumpvars
0!
bx !!
0"
1"!
0#
bx #!
1$
0$!
0%
bx %!
b11 &
b0 &!
b11 '
1'!
bx (
bx (!
bx )
1)!
bx *
bx *!
0+
0+!
0,
bx ,!
b11 -
b0 -!
0.
1.!
0/
bx /!
bz0 0
10!
bx 1
bx 1!
bx 2
02!
03
bx 3!
04
b0 4!
15
15!
06
bx 6!
b0 7
17!
b11 8
bx 8!
bx 9
09!
b0 :
bx :!
b0 ;
b0 ;!
bx <
1<!
bx =
bx =!
b10000 >
1>!
1?
bx ?!
bx @
0@!
1A
bx A!
bx B
b0 B!
0C
1C!
bx D
bx D!
b0 E
1E!
1F
bx F!
bx G
0G!
1H
bx H!
bx I
b0 I!
0J
1J!
bx K
1K!
b0 L
bx L!
1M
0M!
bx N
bx N!
1O
b0 O!
bx P
0P!
0Q
b0 Q!
bx R
b11 R!
b0 S
0S!
1T
0T!
bx U
0U!
1V
0V!
bx W
b0 W!
0X
b11 X!
bx Y
b0 Y!
b0 Z
b0 Z!
1[
bx \
1]
bx ^
0_
bx `
b0 a
1b
bx c
1d
bx e
0f
bx g
b0 h
1i
bx j
1k
bx l
0m
bx n
b0 o
1p
bx q
1r
bx s
0t
bx u
b0 v
1w
bx x
1y
bx z
0{
bx |
b0 }
1~
$end
#10000
1!
b11100011001101 !!
b11100011010101 #!
b0 %!
b11100011001101001110010000010100111001000001010011100011011101001110001100110100111000110011010011100011010101001110001101110100111000111011010011100011111101001110010000010100111001000011010011100100010101001110010010010100111001001101010011100100110101 (
b11100011001101 (!
b0 )
b10000 *
b11100011001101 *!
0,
b0 ,!
1.
b11100011011101 /!
b11100011001101001110010000010100111001000001010011100011011101001110001100110100111000110011010011100011010101001110001101110100111000111011010011100011111101001110010000010100111001000011010011100100010101001110010010010100111001001101010011100100110101 1
b11100011001101 1!
b0 2
03
b0 3!
06
b11100100000101 6!
b0 7
b11 8
b11100011011101 8!
b0 9
b0 :
b0 :!
b11100011001101 <
b11100011001101 =
b11100100000101 =!
b10000 >
b11100100000101 ?!
b11100100110101 @
b0 A!
b11100100110101 B
b0 D
b11100011001101 D!
b11100100000101 F!
b11100100100101 G
b0 H!
b11100100110101 I
b0 K
b11100011001101 L!
b11100100010101 N
b0 N!
b11100100100101 P
0P!
b0 Q!
b0 R
b11 R!
1S!
b11100100001101 U
0V!
b11100100010101 W
b0 W!
b11 X!
b0 Y
b11100100000101 \
b11100100001101 ^
b0 `
b11100011111101 c
b11100100000101 e
b0 g
b11100011101101 j
b11100011111101 l
b0 n
b11100011011101 q
b11100011101101 s
b0 u
b11100011010101 x
b11100011011101 z
b0 |
#20000
0!
0.
0S!
#30000
1!
b11100011001101001110010000010100111001000001010011100011011101001110001100110100111000110011010011100011010101001110001101110100111000111011010011100011111101001110010000010100111001000011010011100100010101001110010010010100111001001101010011100100110101 (
b10000 *
0,
1.
03
06
b0 7
b11 8
b0 :
0P!
b0 Q!
b11 R!
1S!
0V!
b0 W!
b11 X!
#40000
0!
1+
0.
0S!
1U!
#50000
1!
b1 &!
b11100011001101001110010000010100111001000001010011100011011101001110001100110100111000110011010011100011010101001110001101110100111000111011010011100011111101001110010000010100111001000011010011100100010101001110010010010100111001001101010011100100110101 (
b10000 *
0,
b1 -!
1.
03
b1 4!
06
b0 7
b11 8
b0 :
b1 ;!
b1 B!
b1 E
b1 I!
b1 L
b1 O!
0P!
b0 Q!
b11 R!
b1 S
1S!
0V!
b0 W!
b11 X!
b1 Z
b1 a
b1 h
b1 o
b1 v
b1 }
#60000
0!
1"
0.
1/
0S!
1T!
#70000
1!
b10000000000 %!
b10 &
b0 &!
b11100011001101001110010000010100111001000001010011100011011101001110001100110100111000110011010011100011010101001110001101110100111000111011010011100011111101001110010000010100111001000011010011100100010101001110010010010100111001001101010011100100110101 (
b10000000000000001000000000000000100000000000000010000000000000001000000000000000100000000000000010000000000000001000000000000000100000000000000010000000000000001000000000000000100000000000000010000000000000001000000000000000100000000000000010000000000 )
b10000 *
0,
b10000000000 ,!
b10 -
b0 -!
1.
b10000000000000001000000000000000100000000000000010000000000000001000000000000000100000000000000010000000000000001000000000000000100000000000000010000000000000001000000000000000100000000000000010000000000000001000000000000000100000000000000010000000000 2
03
b10000000000 3!
b0 4!
06
b10 8
b10000000000000001000000000000000100000000000000010000000000000001000000000000000100000000000000010000000000000001000000000000000100000000000000010000000000000001000000000000000100000000000000010000000000000001000000000000000100000000000000010000000000 9
b11100100110101 :
b10000000000 :!
b0 ;!
b11100011001101 <
b10000 >
b10000000000 A!
b0 B!
b10000000000 D
b0 E
b10000000000 H!
b0 I!
b10000000000 K
b0 L
b10000000000 N!
b0 O!
1P!
b10000000000 R
b0 S
1S!
0V!
b10 X!
b10000000000 Y
b0 Z
b10000000000 `
b0 a
b10000000000 g
b0 h
b10000000000 n
b0 o
b10000000000 u
b0 v
b10000000000 |
b0 }
#80000
0!
0.
0S!
#90000
1!
b11100110000110 !!
b11100110010110 #!
b1 &
b11100100111101001110010100110100111001010111010011100101101101001110010111110100111001100001100011100110010110001110011001111000111001101011100011100110111110001110011100111000111001110111100011100111100110001110011111011000111001111111100011101000000110 (
b11100101111101 (!
b10000 *
b11100110000110 *!
1,
b1 -
1.
b11100101101101 /!
b11100100111101001110010100110100111001010111010011100101101101001110010111110100111001100001100011100110010110001110011001111000111001101011100011100110111110001110011100111000111001110111100011100111100110001110011111011000111001111111100011101000000110 1
b11100101111101 1!
13
16
b11100101011101 6!
b1 8
b11100101101101 8!
b10000000000000001000000000000000100000000000000010000000000000001000000000000000100000000000000010000000000000001000000000000000100000000000000010000000000000001000000000000000100000000000000010000000000000001000000000000000100000000000000010000000000 9
b11100100110101 :
b11100100110101 <
b0 =
b11100101001101 =!
b10000 >
b11100101011101 ?!
b11100111111110 @
b11101000000110 B
b11100100111101 D!
b11100101001101 F!
b11100111110110 G
b11100111111110 I
b11100100111101 L!
b11100111100110 N
b11100111110110 P
1P!
1S!
b11100111011110 U
1V!
b11100111100110 W
b1 X!
b11100111001110 \
b11100111011110 ^
b11100110111110 c
b11100111001110 e
b11100110101110 j
b11100110111110 l
b11100110011110 q
b11100110101110 s
b11100110010110 x
b11100110011110 z
#100000
0!
0.
0S!
#110000
1!
b11101001001110 !!
b11101001011110 #!
b0 %!
b0 &
b11101000001110001110100001111000111010001001100011101000110110001110100100011000111010010011100011101001011110001110100110011000111010011011100011101001111110001110101000011100111010100011110011101010010111001110101001111100111010101001110011101010101111 (
b11101001000110 (!
b0 )
b10000 *
b11101001001110 *!
b0 ,!
b0 -
1.
b11101000110110 /!
b11101000001110001110100001111000111010001001100011101000110110001110100100011000111010010011100011101001011110001110100110011000111010011011100011101001111110001110101000011100111010100011110011101010010111001110101001111100111010101001110011101010101111 1
b11101001000110 1!
b0 2
b0 3!
16
b11101000100110 6!
b0 8
b11101000110110 8!
b0 9
b11101000000110 :
b0 :!
b11101000000110 <
b0 =
b11101000011110 =!
b10000 >
b11101000100110 ?!
b11101010100111 @
b0 A!
b11101010101111 B
b0 D
b11101000001110 D!
b11101000011110 F!
b11101010011111 G
b0 H!
b11101010100111 I
b0 K
b11101000001110 L!
b11101010010111 N
b0 N!
b11101010011111 P
1P!
b0 R
1S!
b11101010001111 U
1V!
b11101010010111 W
b0 X!
b0 Y
b11101010000111 \
b11101010001111 ^
b0 `
b11101001111110 c
b11101010000111 e
b0 g
b11101001101110 j
b11101001111110 l
b0 n
b11101001100110 q
b11101001101110 s
b0 u
b11101001011110 x
b11101001100110 z
b0 |
#120000
0!
0.
0S!
#130000
1!
b11101011011111 !!
b11101011100111 #!
b111 &
b11101010110111001110101011111100111010110001110011101011001111001110101101011100111010110111110011101011100111001110101110011100111010111011110011101011110111001110101111011100111010111101110011101011111111001110110000011100111011000001110011101100001111 (
b11101011010111 (!
b10000 *
b11101011011111 *!
b111 -
1.
b11101011001111 /!
b11101010110111001110101011111100111010110001110011101011001111001110101101011100111010110111110011101011100111001110101110011100111010111011110011101011110111001110101111011100111010111101110011101011111111001110110000011100111011000001110011101100001111 1
b11101011010111 1!
16
b11101011000111 6!
b1 7
b11 8
b11101011001111 8!
b0 9
b11101010101111 :
b11101010101111 <
b0 =
b11101010111111 =!
b10000 >
b11101011000111 ?!
b11101100000111 @
b11101100001111 B
b11101010110111 D!
b11101010111111 F!
b11101100000111 G
b11101100000111 I
b11101010110111 L!
b11101011111111 N
b11101100000111 P
1P!
1S!
b11101011110111 U
1V!
b11101011111111 W
b1 W!
b11 X!
b11101011110111 \
b11101011110111 ^
b11101011110111 c
b11101011110111 e
b11101011101111 j
b11101011110111 l
b11101011100111 q
b11101011101111 s
b11101011100111 x
b11101011100111 z
#140000
0!
0.
0S!
#150000
1!
b11100011101101 !!
b11100011101101 #!
b110 &
b11100011010101001110001111010100111001000011010011100011111101001110001110010100111000111011010011100011101101001110001111010100111001000001010011100100001101001110010001110100111001001001010011100100100101001110010010110100111001001111010011100101000101 (
b11100011100101 (!
b10000 *
b11100011101101 *!
0,
b110 -
1.
b11100011111101 /!
b11100011010101001110001111010100111001000011010011100011111101001110001110010100111000111011010011100011101101001110001111010100111001000001010011100100001101001110010001110100111001001001010011100100100101001110010010110100111001001111010011100101000101 1
b11100011100101 1!
03
06
b11100100001101 6!
b10 8
b11100011111101 8!
b0 9
b11101100001111 :
b11100011010101 <
b11100011010101 =
b11100011110101 =!
b10000 >
b11100100001101 ?!
b11100100111101 @
b11100101000101 B
b11100011010101 D!
b11100011110101 F!
b11100100101101 G
b11100100111101 I
b11100011010101 L!
b11100100100101 N
b11100100101101 P
1P!
1S!
b11100100100101 U
0V!
b11100100100101 W
b10 X!
b11100100011101 \
b11100100100101 ^
b11100100001101 c
b11100100011101 e
b11100100000101 j
b11100100001101 l
b11100011110101 q
b11100100000101 s
b11100011101101 x
b11100011110101 z
#160000
0!
0.
0S!
#170000
1!
b11100110010110 !!
b11100110100110 #!
b101 &
b11100101010101001110010101110100111001011011010011100101111101001110011000011000111001100101100011100110100110001110011011011000111001101111100011100111001110001110011101111000111001111001100011100111110110001110011111111000111010000011100011101000010110 (
b11100110000110 (!
b10000 *
b11100110010110 *!
1,
b101 -
1.
b11100101111101 /!
b11100101010101001110010101110100111001011011010011100101111101001110011000011000111001100101100011100110100110001110011011011000111001101111100011100111001110001110011101111000111001111001100011100111110110001110011111111000111010000011100011101000010110 1
b11100110000110 1!
13
16
b11100101101101 6!
b1 8
b11100101111101 8!
b0 9
b11100101000101 :
b11100101000101 <
b0 =
b11100101011101 =!
b10000 >
b11100101101101 ?!
b11101000001110 @
b11101000010110 B
b11100101010101 D!
b11100101011101 F!
b11100111111110 G
b11101000001110 I
b11100101010101 L!
b11100111110110 N
b11100111111110 P
1P!
1S!
b11100111100110 U
1V!
b11100111110110 W
b1 X!
b11100111011110 \
b11100111100110 ^
b11100111001110 c
b11100111011110 e
b11100110111110 j
b11100111001110 l
b11100110110110 q
b11100110111110 s
b11100110100110 x
b11100110110110 z
#180000
0!
0.
0S!
#190000
1!
b11101001100110 !!
b11101001101110 #!
b10000000000 %!
b100 &
b11101000100110001110100011011000111010001111100011101001001110001110100101111000111010011001100011101001101110001110100111111000111010100001110011101010010111001110101001111100111010101001110011101010101111001110101011011100111010101111110011101011000111 (
b11101001011110 (!
b10000000000000001000000000000000100000000000000010000000000000001000000000000000100000000000000010000000000000001000000000000000100000000000000010000000000000001000000000000000100000000000000010000000000000001000000000000000100000000000000010000000000 )
b10000 *
b11101001100110 *!
b10000000000 ,!
b100 -
1.
b11101001001110 /!
b11101000100110001110100011011000111010001111100011101001001110001110100101111000111010011001100011101001101110001110100111111000111010100001110011101010010111001110101001111100111010101001110011101010101111001110101011011100111010101111110011101011000111 1
b11101001011110 1!
b10000000000000001000000000000000100000000000000010000000000000001000000000000000100000000000000010000000000000001000000000000000100000000000000010000000000000001000000000000000100000000000000010000000000000001000000000000000100000000000000010000000000 2
b10000000000 3!
16
b11101000111110 6!
b0 8
b11101001001110 8!
b10000000000000001000000000000000100000000000000010000000000000001000000000000000100000000000000010000000000000001000000000000000100000000000000010000000000000001000000000000000100000000000000010000000000000001000000000000000100000000000000010000000000 9
b11101000010110 :
b10000000000 :!
b11101000010110 <
b0 =
b11101000110110 =!
b10000 >
b11101000111110 ?!
b11101010111111 @
b10000000000 A!
b11101011000111 B
b10000000000 D
b11101000100110 D!
b11101000110110 F!
b11101010110111 G
b10000000000 H!
b11101010111111 I
b10000000000 K
b11101000100110 L!
b11101010101111 N
b10000000000 N!
b11101010110111 P
1P!
b10000000000 R
1S!
b11101010100111 U
1V!
b11101010101111 W
b0 X!
b10000000000 Y
b11101010011111 \
b11101010100111 ^
b10000000000 `
b11101010010111 c
b11101010011111 e
b10000000000 g
b11101010000111 j
b11101010010111 l
b10000000000 n
b11101001111110 q
b11101010000111 s
b10000000000 u
b11101001101110 x
b11101001111110 z
b10000000000 |
#200000
0!
0+
0.
0S!
0U!
#210000
1!
b11101011110111 !!
b11101011110111 #!
b0 %!
b1011 &
b11101011001111001110101101011100111010110111110011101011100111001110101110111100111010111101110011101011110111001110101111111100111011000001110011101100000111001110110000111100111011000011110011101100010111001110110001111100111011000111110011101100011111 (
b11101011101111 (!
b0 )
b10000 *
b11101011110111 *!
b0 ,!
1.
b11101011100111 /!
b11101011001111001110101101011100111010110111110011101011100111001110101110111100111010111101110011101011110111001110101111111100111011000001110011101100000111001110110000111100111011000011110011101100010111001110110001111100111011000111110011101100011111 1
b11101011101111 1!
b0 2
b0 3!
16
b11101011011111 6!
b10 7
b11 8
b11101011100111 8!
b0 9
b11101011000111 :
b0 :!
b11101011000111 <
b0 =
b11101011010111 =!
b10000 >
b11101011011111 ?!
b11101100011111 @
b0 A!
b11101100011111 B
b0 D
b11101011001111 D!
b11101011010111 F!
b11101100011111 G
b0 H!
b11101100011111 I
b0 K
b11101011001111 L!
b11101100010111 N
b0 N!
b11101100011111 P
1P!
b0 R
1S!
b11101100001111 U
1V!
b11101100010111 W
b0 Y
b11101100001111 \
b11101100001111 ^
b0 `
b11101100000111 c
b11101100001111 e
b0 g
b11101100000111 j
b11101100000111 l
b0 n
b11101011111111 q
b11101100000111 s
b0 u
b11101011110111 x
b11101011111111 z
b0 |
#220000
0!
0.
0S!
#230000
1!
b11100100001101 !!
b11100100011101 #!
b1001110000000000 %!
b1010 &
b11100011100101001110001110110100111000111111010011100100000101001110010000010100111001000011010011100100011101001110010010110100111001001011010011100100100101001110010010110100111001001101010011100100110101001110010100010100111001010011010011100101010101 (
b11100100000101 (!
b101001110000000000000000000000000010010100000000001000000000000000000000000000001001110000000000100111000000000010100000000000001010000000000000100111000000000010011100000000001001110000000000101000000000000010100000000000000000000000000000 )
b10000 *
b11100100001101 *!
1.
b11100100000101 /!
b11100011100101001110001110110100111000111111010011100100000101001110010000010100111001000011010011100100011101001110010010110100111001001011010011100100100101001110010010110100111001001101010011100100110101001110010100010100111001010011010011100101010101 1
b11100100000101 1!
b101001110000000000000000000000000010010100000000001000000000000000000000000000001001110000000000100111000000000010100000000000001010000000000000100111000000000010011100000000001001110000000000101000000000000010100000000000000000000000000000 2
03
b10000000000000 3!
06
b11100011111101 6!
b10 8
b11100100000101 8!
b101001110000000000000000000000000010010100000000001000000000000000000000000000001001110000000000100111000000000010100000000000001010000000000000100111000000000010011100000000001001110000000000101000000000000010100000000000000000000000000000 9
b11101100011111 :
b10010100000000 :!
b11100011100101 <
b11100011100101 =
b11100011101101 =!
b10000 >
b11100011111101 ?!
b11100101001101 @
b11100101010101 B
b11100011100101 D!
b11100011101101 F!
b11100101000101 G
b1010011100000000 H!
b11100101001101 I
b1010000000000000 K
b11100011100101 L!
b11100100110101 N
b11100101000101 P
1P!
b1010000000000000 R
1S!
b11100100110101 U
1V!
b11100100110101 W
b1001110000000000 Y
b11100100101101 \
b11100100110101 ^
b1001110000000000 `
b11100100100101 c
b11100100101101 e
b1001110000000000 g
b11100100101101 j
b11100100100101 l
b1010000000000000 n
b11100100101101 q
b11100100101101 s
b1010000000000000 u
b11100100011101 x
b11100100101101 z
b1001110000000000 |
#240000
0!
1+
0.
0S!
1U!
#250000
1!
b11100110101110 !!
b11100110110110 #!
b1001 &
b11100101100101001110010111010100111001100001100011100110001110001110011001111000111001101011100011100110110110001110011100011000111001110101100011100111100110001110011110111000111001111111100011101000001110001110100001011000111010001001100011101000110110 (
b11100110011110 (!
b10000 *
b11100110101110 *!
b1011 -
1.
b11100110001110 /!
b11100101100101001110010111010100111001100001100011100110001110001110011001111000111001101011100011100110110110001110011100011000111001110101100011100111100110001110011110111000111001111111100011101000001110001110100001011000111010001001100011101000110110 1
b11100110011110 1!
13
16
b11100110000110 6!
b1 8
b11100110001110 8!
b101001110000000000000000000000000010010100000000001000000000000000000000000000001001110000000000100111000000000010100000000000001010000000000000100111000000000010011100000000001001110000000000101000000000000010100000000000000000000000000000 9
b11100101010101 :
b11100101010101 <
b0 =
b11100101110101 =!
b10000 >
b11100110000110 ?!
b11101000100110 @
b11101000110110 B
b11100101100101 D!
b11100101110101 F!
b11101000010110 G
b11101000100110 I
b11100101100101 L!
b11101000001110 N
b11101000010110 P
1P!
1S!
b11100111111110 U
1V!
b11101000001110 W
b10 W!
b11 X!
b11100111101110 \
b11100111111110 ^
b11100111100110 c
b11100111101110 e
b11100111010110 j
b11100111100110 l
b11100111000110 q
b11100111010110 s
b11100110110110 x
b11100111000110 z
#260000
0!
0.
0S!
#270000
1!
b11101001111110 !!
b11101010001111 #!
b1000 &
b11101000111110001110100100111000111010010111100011101001100110001110100111011000111010011111100011101010001111001110101001011100111010101001110011101010101111001110101011011100111010101111110011101011000111001110101100111100111010110101110011101011011111 (
b11101001110110 (!
b10000 *
b11101001111110 *!
0,
b1010 -
1.
b11101001100110 /!
b11101000111110001110100100111000111010010111100011101001100110001110100111011000111010011111100011101010001111001110101001011100111010101001110011101010101111001110101011011100111010101111110011101011000111001110101100111100111010110101110011101011011111 1
b11101001110110 1!
16
b11101001011110 6!
b0 8
b11101001100110 8!
b101001110000000000000000000000000010010100000000001000000000000000000000000000001001110000000000100111000000000010100000000000001010000000000000100111000000000010011100000000001001110000000000101000000000000010100000000000000000000000000000 9
b11101000110110 :
b11101000110110 <
b0 =
b11101001001110 =!
b10000 >
b11101001011110 ?!
b11101011010111 @
b11101011011111 B
b11101000111110 D!
b11101001001110 F!
b11101011001111 G
b11101011010111 I
b11101000111110 L!
b11101011000111 N
b11101011001111 P
1P!
1S!
b11101010111111 U
0V!
b11101011000111 W
b10 X!
b11101010110111 \
b11101010111111 ^
b11101010101111 c
b11101010110111 e
b11101010100111 j
b11101010101111 l
b11101010010111 q
b11101010100111 s
b11101010001111 x
b11101010010111 z
#280000
0!
0.
0S!
